Estimating feeding kernels from stomach data
…
To see how this biomass density is related to the observations of stomach contents, consider that instead of recording one observation for each prey individual, we could in principle record one observation for each unit of biomass in the stomach. This would correspond to splitting each single observation for a prey item of size \(w\) into \(w\) separate observations. This new larger set of observations could then be seen as a sample from the distribution described by the biomass density \(b_w(w|w')\).

Again we can transform the probability density to different variables. In particular the density as a function of \(l = \log(w'/w)\) is \[
b_l(l|w') = w\,b_w(w|w') \propto w^2\,f_w(w|w')
\propto w\,f_l(l) \propto e^{-l}f_l(l).
\] So again \(b_l(l|w')\) is independent of \(w'\).

Mariellas dataset

Mariella has data of stomach content for anchovy and sardine. Mariella can provide more details of the origin of this data.

stomach <- read_csv("../humboldt/Data_PPMR.csv")
stomach

## # A tibble: 226 x 4
##    Species         wprey wpredator     Nprey
##    <chr>           <dbl>     <dbl>     <dbl>
##  1 anchovy 0.0000000168       15.3   106.   
##  2 anchovy 0.00000000275      15.3     5.05 
##  3 anchovy 0.00000000619      15.3     8.77 
##  4 anchovy 0.0000000015       15.3 12500.   
##  5 anchovy 0.00000000353      15.3    33.9  
##  6 anchovy 0.000000101        15.3    37.3  
##  7 anchovy 0.0000000300       15.3     1.23 
##  8 anchovy 0.00000000394      15.3  9756.   
##  9 anchovy 0.00000000078      15.3     0.189
## 10 anchovy 0.0000000356       15.3    10.2  
## #  with 216 more rows

The wprey variable is the typical weight of an individual of a particular prey species and Nprey is the average number of individuals of that species in a stomach and wpredator is the weight of the predator. The table reports the same predator size for all anchovy and the same predator size for all sardine because all predators of each species had very similar sizes.

We capitalise the species names and add a column for the log of the predator/prey mass ratio \(l = \log(w'/w)\).

stomach <- stomach %>% 
    mutate(Species = str_to_title(Species),
         l = log(wpredator / wprey))
stomach

## # A tibble: 226 x 5
##    Species         wprey wpredator     Nprey     l
##    <chr>           <dbl>     <dbl>     <dbl> <dbl>
##  1 Anchovy 0.0000000168       15.3   106.     20.6
##  2 Anchovy 0.00000000275      15.3     5.05   22.4
##  3 Anchovy 0.00000000619      15.3     8.77   21.6
##  4 Anchovy 0.0000000015       15.3 12500.     23.0
##  5 Anchovy 0.00000000353      15.3    33.9    22.2
##  6 Anchovy 0.000000101        15.3    37.3    18.8
##  7 Anchovy 0.0000000300       15.3     1.23   20.1
##  8 Anchovy 0.00000000394      15.3  9756.     22.1
##  9 Anchovy 0.00000000078      15.3     0.189  23.7
## 10 Anchovy 0.0000000356       15.3    10.2    19.9
## #  with 216 more rows
…
## `summarise()` has grouped output by 'Species'. You can override using the `.groups` argument.

binned_stomach

## # A tibble: 41 x 5
## # Groups:   Species [2]
##    Species   cut      Numbers  Biomass     l
##    <chr>   <int>        <dbl>    <dbl> <dbl>
##  1 Anchovy     1 0.0000000323 0.000557  6.78
##  2 Anchovy     2 0.000104     1.21      7.48
##  3 Anchovy     7 0.000103     0.0367   11.0 
##  4 Anchovy     8 0.000696     0.103    11.7 
##  5 Anchovy     9 0.00000209   0.000169 12.4 
##  6 Anchovy    10 0.000130     0.00719  13.1 
##  7 Anchovy    11 0.0000773    0.00153  13.8 
##  8 Anchovy    12 0.0000733    0.000599 14.5 
##  9 Anchovy    15 0.0372       0.0503   16.6 
## 10 Anchovy    16 0.000650     0.000465 17.3 
## #  with 31 more rows
…
If the stomach distribution \(f_l(l)\) is the normal distribution with mean \(\mu\) and variance \(\sigma^2\) then the feeding kernel as a function of \(l\) is also a Gaussian with the same variance and with mean \(\mu + (4/3 - \lambda)\sigma^2\).

Barnes dataset

Reading in the data

stomach_full <-
    read_tsv("Predator_and_prey_body_sizes_in_marine_food.csv",
             na = c("", "n/a"),
             guess_max = 10000)
stomach_full

## # A tibble: 34,931 x 60
##    `Record number` `In-ref ID` `Individual ID` Predator       `Predator common 
##              <dbl> <chr>                 <dbl> <chr>          <chr>             
##  1               1 ATSH063                   1 Rhizoprionodo Atlantic sharpnos
##  2               2 ATSH080                   2 Rhizoprionodo Atlantic sharpnos
##  3               3 ATSH089                   3 Rhizoprionodo Atlantic sharpnos
##  4               4 ATSH143                   4 Rhizoprionodo Atlantic sharpnos
##  5               5 ATSH161                   5 Rhizoprionodo Atlantic sharpnos
##  6               6 ATSH166                   6 Rhizoprionodo Atlantic sharpnos
##  7               7 ATSH172                   7 Rhizoprionodo Atlantic sharpnos
##  8               8 ATSH192                   8 Rhizoprionodo Atlantic sharpnos
##  9               9 ATSH205                   9 Rhizoprionodo Atlantic sharpnos
## 10              10 ATSH205                   9 Rhizoprionodo Atlantic sharpnos
## #  with 34,921 more rows, and 55 more variables: Predator  taxon <chr>,
## #   Predator lifestage <chr>, Type of feeding interaction <chr>,
## #   Predator length <dbl>, Predator length unit <chr>,
## #   Predator dimension measured <chr>, Predator standard length <dbl>,
## #   Predator fork length <dbl>, Predator total length <dbl>,
## #   Predator TL/FL/SL conversion reference <chr>,
## #   Standardised predator length <dbl>, Predator measurement type <chr>,
## #   Predator length-mass conversion method <chr>,
## #   Predator length-mass conversion reference <chr>,
…
We select only the relevant columns and remove predator species with fewer than 1000 observations.

stomach <- stomach_full %>% 
    select(Species = `Predator common name`,
           wpredator = `SI predator mass`,
           wprey = `SI prey mass`) %>% 
    group_by(Species) %>% 
    filter(n() > 1000) %>% 
    mutate(Nprey = 1,
           l = log(wpredator / wprey),
           weight_numbers = Nprey / sum(Nprey),
           weight_biomass = Nprey * wprey / sum(Nprey * wprey))
stomach

## # A tibble: 23,169 x 7
## # Groups:   Species [12]
##    Species             wpredator wprey Nprey     l weight_numbers weight_biomass
##    <chr>                   <dbl> <dbl> <dbl> <dbl>          <dbl>          <dbl>
##  1 Atlantic bluefin t     61666  3.51     1  9.77       0.000524      0.0000285
##  2 Atlantic bluefin t     61666  3.51     1  9.77       0.000524      0.0000285
##  3 Atlantic bluefin t     61666  3.51     1  9.77       0.000524      0.0000285
##  4 Atlantic bluefin t     61666  4.63     1  9.50       0.000524      0.0000376
##  5 Atlantic bluefin t     61666  4.63     1  9.50       0.000524      0.0000376
##  6 Atlantic bluefin t     61666  4.63     1  9.50       0.000524      0.0000376
##  7 Atlantic bluefin t     61666  4.63     1  9.50       0.000524      0.0000376
##  8 Atlantic bluefin t     61666  4.63     1  9.50       0.000524      0.0000376
##  9 Atlantic bluefin t     61666  4.63     1  9.50       0.000524      0.0000376
## 10 Atlantic bluefin t     61666  5.97     1  9.24       0.000524      0.0000485
## #  with 23,159 more rows
…
